Replace the picture that you want to upload as a thumbnail on YouTube.

The names are...

thumbnail swedish.png
thumbnail english.png
thumbnail farsi.png
thumbnail other.png

... for the different kinds of events

********************************************************
** The images must be put inside the "images"-folder. **
********************************************************